^C:\USERS\LANDON\BOX SYNC\CSE165 SATS LABS\LAB5\7_MINIPROH\FREEGLUTAPP - COPY\GLUT_WINDOW.CPP
/c /I../ /I../freeglut /ZI /nologo /W3 /WX- /Od /Oy- /D WIN32 /D _DEBUG /D _CONSOLE /D _VC80_UPGRADE=0x0710 /D _MBCS /Gm- /EHsc /RTC1 /MTd /GS /fp:precise /Zc:wchar_t /Zc:forScope /Fo"OBJ\GLUTAPP_DEBUG\\" /Fd"OBJ\GLUTAPP_DEBUG\VC120.PDB" /Gd /TP /analyze- C:\USERS\LANDON\BOX SYNC\CSE165 SATS LABS\LAB5\7_MINIPROH\FREEGLUTAPP - COPY\GLUT_WINDOW.CPP
^C:\USERS\LANDON\BOX SYNC\CSE165 SATS LABS\LAB5\7_MINIPROH\FREEGLUTAPP - COPY\APP_MAIN.CPP
/c /I../ /I../freeglut /ZI /nologo /W3 /WX- /Od /Oy- /D WIN32 /D _DEBUG /D _CONSOLE /D _VC80_UPGRADE=0x0710 /D _MBCS /Gm- /EHsc /RTC1 /MTd /GS /fp:precise /Zc:wchar_t /Zc:forScope /Fo"OBJ\GLUTAPP_DEBUG\\" /Fd"OBJ\GLUTAPP_DEBUG\VC120.PDB" /Gd /TP /analyze- C:\USERS\LANDON\BOX SYNC\CSE165 SATS LABS\LAB5\7_MINIPROH\FREEGLUTAPP - COPY\APP_MAIN.CPP
^C:\USERS\LANDON\BOX SYNC\CSE165 SATS LABS\LAB5\7_MINIPROH\FREEGLUTAPP - COPY\APP_WINDOW.CPP
/c /I../ /I../freeglut /ZI /nologo /W3 /WX- /Od /Oy- /D WIN32 /D _DEBUG /D _CONSOLE /D _VC80_UPGRADE=0x0710 /D _MBCS /Gm- /EHsc /RTC1 /MTd /GS /fp:precise /Zc:wchar_t /Zc:forScope /Fo"OBJ\GLUTAPP_DEBUG\\" /Fd"OBJ\GLUTAPP_DEBUG\VC120.PDB" /Gd /TP /analyze- C:\USERS\LANDON\BOX SYNC\CSE165 SATS LABS\LAB5\7_MINIPROH\FREEGLUTAPP - COPY\APP_WINDOW.CPP
^C:\USERS\LANDON\BOX SYNC\CSE165 SATS LABS\FINAL PROJ\FREEGLUTAPP - COPY\APP_MAIN.CPP
/c /I../ /I../freeglut /ZI /nologo /W3 /WX- /Od /Oy- /D WIN32 /D _DEBUG /D _CONSOLE /D _VC80_UPGRADE=0x0710 /D _MBCS /Gm- /EHsc /RTC1 /MTd /GS /fp:precise /Zc:wchar_t /Zc:forScope /Fo"OBJ\GLUTAPP_DEBUG\\" /Fd"OBJ\GLUTAPP_DEBUG\VC120.PDB" /Gd /TP /analyze- C:\USERS\LANDON\BOX SYNC\CSE165 SATS LABS\FINAL PROJ\FREEGLUTAPP - COPY\APP_MAIN.CPP
^C:\USERS\LANDON\BOX SYNC\CSE165 SATS LABS\FINAL PROJ\FREEGLUTAPP - COPY\APP_WINDOW.CPP
/c /I../ /I../freeglut /ZI /nologo /W3 /WX- /Od /Oy- /D WIN32 /D _DEBUG /D _CONSOLE /D _VC80_UPGRADE=0x0710 /D _MBCS /Gm- /EHsc /RTC1 /MTd /GS /fp:precise /Zc:wchar_t /Zc:forScope /Fo"OBJ\GLUTAPP_DEBUG\\" /Fd"OBJ\GLUTAPP_DEBUG\VC120.PDB" /Gd /TP /analyze- C:\USERS\LANDON\BOX SYNC\CSE165 SATS LABS\FINAL PROJ\FREEGLUTAPP - COPY\APP_WINDOW.CPP
^C:\USERS\LANDON\BOX SYNC\CSE165 SATS LABS\FINAL PROJ\FREEGLUTAPP - COPY\GLUT_WINDOW.CPP
/c /I../ /I../freeglut /ZI /nologo /W3 /WX- /Od /Oy- /D WIN32 /D _DEBUG /D _CONSOLE /D _VC80_UPGRADE=0x0710 /D _MBCS /Gm- /EHsc /RTC1 /MTd /GS /fp:precise /Zc:wchar_t /Zc:forScope /Fo"OBJ\GLUTAPP_DEBUG\\" /Fd"OBJ\GLUTAPP_DEBUG\VC120.PDB" /Gd /TP /analyze- C:\USERS\LANDON\BOX SYNC\CSE165 SATS LABS\FINAL PROJ\FREEGLUTAPP - COPY\GLUT_WINDOW.CPP
^C:\USERS\LANDON\BOX SYNC\CSE165 SATS LABS\FINAL PROJ\INSERTSORT\GLUT_WINDOW.CPP
/c /I../ /I../freeglut /ZI /nologo /W3 /WX- /Od /Oy- /D WIN32 /D _DEBUG /D _CONSOLE /D _VC80_UPGRADE=0x0710 /D _MBCS /Gm- /EHsc /RTC1 /MTd /GS /fp:precise /Zc:wchar_t /Zc:forScope /Fo"OBJ\GLUTAPP_DEBUG\\" /Fd"OBJ\GLUTAPP_DEBUG\VC120.PDB" /Gd /TP /analyze- C:\USERS\LANDON\BOX SYNC\CSE165 SATS LABS\FINAL PROJ\INSERTSORT\GLUT_WINDOW.CPP
^C:\USERS\LANDON\BOX SYNC\CSE165 SATS LABS\FINAL PROJ\INSERTSORT\APP_MAIN.CPP
/c /I../ /I../freeglut /ZI /nologo /W3 /WX- /Od /Oy- /D WIN32 /D _DEBUG /D _CONSOLE /D _VC80_UPGRADE=0x0710 /D _MBCS /Gm- /EHsc /RTC1 /MTd /GS /fp:precise /Zc:wchar_t /Zc:forScope /Fo"OBJ\GLUTAPP_DEBUG\\" /Fd"OBJ\GLUTAPP_DEBUG\VC120.PDB" /Gd /TP /analyze- C:\USERS\LANDON\BOX SYNC\CSE165 SATS LABS\FINAL PROJ\INSERTSORT\APP_MAIN.CPP
^C:\USERS\LANDON\BOX SYNC\CSE165 SATS LABS\FINAL PROJ\INSERTSORT\APP_WINDOW.CPP
/c /I../ /I../freeglut /ZI /nologo /W3 /WX- /Od /Oy- /D WIN32 /D _DEBUG /D _CONSOLE /D _VC80_UPGRADE=0x0710 /D _MBCS /Gm- /EHsc /RTC1 /MTd /GS /fp:precise /Zc:wchar_t /Zc:forScope /Fo"OBJ\GLUTAPP_DEBUG\\" /Fd"OBJ\GLUTAPP_DEBUG\VC120.PDB" /Gd /TP /analyze- C:\USERS\LANDON\BOX SYNC\CSE165 SATS LABS\FINAL PROJ\INSERTSORT\APP_WINDOW.CPP
^C:\USERS\LANDON\BOX SYNC\CSE165 SATS LABS\FINAL PROJ\INSERTSORT - COPY\GLUT_WINDOW.CPP
/c /I../ /I../freeglut /ZI /nologo /W3 /WX- /Od /Oy- /D WIN32 /D _DEBUG /D _CONSOLE /D _VC80_UPGRADE=0x0710 /D _MBCS /Gm- /EHsc /RTC1 /MTd /GS /fp:precise /Zc:wchar_t /Zc:forScope /Fo"OBJ\GLUTAPP_DEBUG\\" /Fd"OBJ\GLUTAPP_DEBUG\VC120.PDB" /Gd /TP /analyze- C:\USERS\LANDON\BOX SYNC\CSE165 SATS LABS\FINAL PROJ\INSERTSORT - COPY\GLUT_WINDOW.CPP
^C:\USERS\LANDON\BOX SYNC\CSE165 SATS LABS\FINAL PROJ\INSERTSORT - COPY\APP_MAIN.CPP
/c /I../ /I../freeglut /ZI /nologo /W3 /WX- /Od /Oy- /D WIN32 /D _DEBUG /D _CONSOLE /D _VC80_UPGRADE=0x0710 /D _MBCS /Gm- /EHsc /RTC1 /MTd /GS /fp:precise /Zc:wchar_t /Zc:forScope /Fo"OBJ\GLUTAPP_DEBUG\\" /Fd"OBJ\GLUTAPP_DEBUG\VC120.PDB" /Gd /TP /analyze- C:\USERS\LANDON\BOX SYNC\CSE165 SATS LABS\FINAL PROJ\INSERTSORT - COPY\APP_MAIN.CPP
^C:\USERS\LANDON\BOX SYNC\CSE165 SATS LABS\FINAL PROJ\INSERTSORT - COPY\APP_WINDOW.CPP
/c /I../ /I../freeglut /ZI /nologo /W3 /WX- /Od /Oy- /D WIN32 /D _DEBUG /D _CONSOLE /D _VC80_UPGRADE=0x0710 /D _MBCS /Gm- /EHsc /RTC1 /MTd /GS /fp:precise /Zc:wchar_t /Zc:forScope /Fo"OBJ\GLUTAPP_DEBUG\\" /Fd"OBJ\GLUTAPP_DEBUG\VC120.PDB" /Gd /TP /analyze- C:\USERS\LANDON\BOX SYNC\CSE165 SATS LABS\FINAL PROJ\INSERTSORT - COPY\APP_WINDOW.CPP
^C:\USERS\LANDON\BOX SYNC\CSE165 SATS LABS\FINAL PROJ\THE FINAL\GLUT_WINDOW.CPP
/c /I../ /I../freeglut /ZI /nologo /W3 /WX- /Od /Oy- /D WIN32 /D _DEBUG /D _CONSOLE /D _VC80_UPGRADE=0x0710 /D _MBCS /Gm- /EHsc /RTC1 /MTd /GS /fp:precise /Zc:wchar_t /Zc:forScope /Fo"OBJ\GLUTAPP_DEBUG\\" /Fd"OBJ\GLUTAPP_DEBUG\VC120.PDB" /Gd /TP /analyze- C:\USERS\LANDON\BOX SYNC\CSE165 SATS LABS\FINAL PROJ\THE FINAL\GLUT_WINDOW.CPP
^C:\USERS\LANDON\BOX SYNC\CSE165 SATS LABS\FINAL PROJ\THE FINAL\APP_MAIN.CPP
/c /I../ /I../freeglut /ZI /nologo /W3 /WX- /Od /Oy- /D WIN32 /D _DEBUG /D _CONSOLE /D _VC80_UPGRADE=0x0710 /D _MBCS /Gm- /EHsc /RTC1 /MTd /GS /fp:precise /Zc:wchar_t /Zc:forScope /Fo"OBJ\GLUTAPP_DEBUG\\" /Fd"OBJ\GLUTAPP_DEBUG\VC120.PDB" /Gd /TP /analyze- C:\USERS\LANDON\BOX SYNC\CSE165 SATS LABS\FINAL PROJ\THE FINAL\APP_MAIN.CPP
^C:\USERS\LANDON\BOX SYNC\CSE165 SATS LABS\FINAL PROJ\THE FINAL\APP_WINDOW.CPP
/c /I../ /I../freeglut /ZI /nologo /W3 /WX- /Od /Oy- /D WIN32 /D _DEBUG /D _CONSOLE /D _VC80_UPGRADE=0x0710 /D _MBCS /Gm- /EHsc /RTC1 /MTd /GS /fp:precise /Zc:wchar_t /Zc:forScope /Fo"OBJ\GLUTAPP_DEBUG\\" /Fd"OBJ\GLUTAPP_DEBUG\VC120.PDB" /Gd /TP /analyze- C:\USERS\LANDON\BOX SYNC\CSE165 SATS LABS\FINAL PROJ\THE FINAL\APP_WINDOW.CPP
^C:\USERS\LANDON\BOX SYNC\CSE165 SATS LABS\FINAL PROJ\THE FINAL - COPY\GLUT_WINDOW.CPP
/c /I../ /I../freeglut /ZI /nologo /W3 /WX- /Od /Oy- /D WIN32 /D _DEBUG /D _CONSOLE /D _VC80_UPGRADE=0x0710 /D _MBCS /Gm- /EHsc /RTC1 /MTd /GS /fp:precise /Zc:wchar_t /Zc:forScope /Fo"OBJ\GLUTAPP_DEBUG\\" /Fd"OBJ\GLUTAPP_DEBUG\VC120.PDB" /Gd /TP /analyze- C:\USERS\LANDON\BOX SYNC\CSE165 SATS LABS\FINAL PROJ\THE FINAL - COPY\GLUT_WINDOW.CPP
^C:\USERS\LANDON\BOX SYNC\CSE165 SATS LABS\FINAL PROJ\THE FINAL - COPY\APP_MAIN.CPP
/c /I../ /I../freeglut /ZI /nologo /W3 /WX- /Od /Oy- /D WIN32 /D _DEBUG /D _CONSOLE /D _VC80_UPGRADE=0x0710 /D _MBCS /Gm- /EHsc /RTC1 /MTd /GS /fp:precise /Zc:wchar_t /Zc:forScope /Fo"OBJ\GLUTAPP_DEBUG\\" /Fd"OBJ\GLUTAPP_DEBUG\VC120.PDB" /Gd /TP /analyze- C:\USERS\LANDON\BOX SYNC\CSE165 SATS LABS\FINAL PROJ\THE FINAL - COPY\APP_MAIN.CPP
^C:\USERS\LANDON\BOX SYNC\CSE165 SATS LABS\FINAL PROJ\THE FINAL - COPY\APP_WINDOW.CPP
/c /I../ /I../freeglut /ZI /nologo /W3 /WX- /Od /Oy- /D WIN32 /D _DEBUG /D _CONSOLE /D _VC80_UPGRADE=0x0710 /D _MBCS /Gm- /EHsc /RTC1 /MTd /GS /fp:precise /Zc:wchar_t /Zc:forScope /Fo"OBJ\GLUTAPP_DEBUG\\" /Fd"OBJ\GLUTAPP_DEBUG\VC120.PDB" /Gd /TP /analyze- C:\USERS\LANDON\BOX SYNC\CSE165 SATS LABS\FINAL PROJ\THE FINAL - COPY\APP_WINDOW.CPP
^C:\USERS\LANDON\BOX SYNC\CSE165 SATS LABS\FINAL PROJ\THE FINAL - COPY - COPY\GLUT_WINDOW.CPP
/c /I../ /I../freeglut /ZI /nologo /W3 /WX- /Od /Oy- /D WIN32 /D _DEBUG /D _CONSOLE /D _VC80_UPGRADE=0x0710 /D _MBCS /Gm- /EHsc /RTC1 /MTd /GS /fp:precise /Zc:wchar_t /Zc:forScope /Fo"OBJ\GLUTAPP_DEBUG\\" /Fd"OBJ\GLUTAPP_DEBUG\VC120.PDB" /Gd /TP /analyze- C:\USERS\LANDON\BOX SYNC\CSE165 SATS LABS\FINAL PROJ\THE FINAL - COPY - COPY\GLUT_WINDOW.CPP
^C:\USERS\LANDON\BOX SYNC\CSE165 SATS LABS\FINAL PROJ\THE FINAL - COPY - COPY\APP_MAIN.CPP
/c /I../ /I../freeglut /ZI /nologo /W3 /WX- /Od /Oy- /D WIN32 /D _DEBUG /D _CONSOLE /D _VC80_UPGRADE=0x0710 /D _MBCS /Gm- /EHsc /RTC1 /MTd /GS /fp:precise /Zc:wchar_t /Zc:forScope /Fo"OBJ\GLUTAPP_DEBUG\\" /Fd"OBJ\GLUTAPP_DEBUG\VC120.PDB" /Gd /TP /analyze- C:\USERS\LANDON\BOX SYNC\CSE165 SATS LABS\FINAL PROJ\THE FINAL - COPY - COPY\APP_MAIN.CPP
^C:\USERS\LANDON\BOX SYNC\CSE165 SATS LABS\FINAL PROJ\THE FINAL - COPY - COPY\APP_WINDOW.CPP
/c /I../ /I../freeglut /ZI /nologo /W3 /WX- /Od /Oy- /D WIN32 /D _DEBUG /D _CONSOLE /D _VC80_UPGRADE=0x0710 /D _MBCS /Gm- /EHsc /RTC1 /MTd /GS /fp:precise /Zc:wchar_t /Zc:forScope /Fo"OBJ\GLUTAPP_DEBUG\\" /Fd"OBJ\GLUTAPP_DEBUG\VC120.PDB" /Gd /TP /analyze- C:\USERS\LANDON\BOX SYNC\CSE165 SATS LABS\FINAL PROJ\THE FINAL - COPY - COPY\APP_WINDOW.CPP
^C:\USERS\LANDON\DESKTOP\THE_FINAL_-_COPY_-_COPY-2015-05-11 (1)\THE FINAL - COPY - COPY\APP_MAIN.CPP
/c /I../ /I../freeglut /ZI /nologo /W3 /WX- /Od /Oy- /D WIN32 /D _DEBUG /D _CONSOLE /D _VC80_UPGRADE=0x0710 /D _MBCS /Gm- /EHsc /RTC1 /MTd /GS /fp:precise /Zc:wchar_t /Zc:forScope /Fo"OBJ\GLUTAPP_DEBUG\\" /Fd"OBJ\GLUTAPP_DEBUG\VC120.PDB" /Gd /TP /analyze- C:\USERS\LANDON\DESKTOP\THE_FINAL_-_COPY_-_COPY-2015-05-11 (1)\THE FINAL - COPY - COPY\APP_MAIN.CPP
^C:\USERS\LANDON\DESKTOP\THE_FINAL_-_COPY_-_COPY-2015-05-11 (1)\THE FINAL - COPY - COPY\APP_WINDOW.CPP
/c /I../ /I../freeglut /ZI /nologo /W3 /WX- /Od /Oy- /D WIN32 /D _DEBUG /D _CONSOLE /D _VC80_UPGRADE=0x0710 /D _MBCS /Gm- /EHsc /RTC1 /MTd /GS /fp:precise /Zc:wchar_t /Zc:forScope /Fo"OBJ\GLUTAPP_DEBUG\\" /Fd"OBJ\GLUTAPP_DEBUG\VC120.PDB" /Gd /TP /analyze- C:\USERS\LANDON\DESKTOP\THE_FINAL_-_COPY_-_COPY-2015-05-11 (1)\THE FINAL - COPY - COPY\APP_WINDOW.CPP
^C:\USERS\LANDON\DESKTOP\THE_FINAL_-_COPY_-_COPY-2015-05-11 (1)\THE FINAL - COPY - COPY\GLUT_WINDOW.CPP
/c /I../ /I../freeglut /ZI /nologo /W3 /WX- /Od /Oy- /D WIN32 /D _DEBUG /D _CONSOLE /D _VC80_UPGRADE=0x0710 /D _MBCS /Gm- /EHsc /RTC1 /MTd /GS /fp:precise /Zc:wchar_t /Zc:forScope /Fo"OBJ\GLUTAPP_DEBUG\\" /Fd"OBJ\GLUTAPP_DEBUG\VC120.PDB" /Gd /TP /analyze- C:\USERS\LANDON\DESKTOP\THE_FINAL_-_COPY_-_COPY-2015-05-11 (1)\THE FINAL - COPY - COPY\GLUT_WINDOW.CPP
